{
  "project_info": {
    "project_number": "858706434925",
    "firebase_url": "https://flutter-chat-cceb9.firebaseio.com",
    "project_id": "flutter-chat-cceb9",
    "storage_bucket": "flutter-chat-cceb9.appspot.com"
  },
  "client": [
    {
      "client_info": {
        "mobilesdk_app_id": "1:858706434925:android:6eee1c97208aa5ad091864",
        "android_client_info": {
          "package_name": "com.example.chat_app"
        }
      },
      "oauth_client": [
        {
          "client_id": "858706434925-1i8ntd5vjr6osr6qg06kjks0uciln7cq.apps.googleusercontent.com",
          "client_type": 3
        }
      ],
      "api_key": [
        {
          "current_key": "AIzaSyB9UlFF7rMi-XQCvne6BIHDB5v0gsbIVrE"
        }
      ],
      "services": {
        "appinvite_service": {
          "other_platform_oauth_client": [
            {
              "client_id": "858706434925-1i8ntd5vjr6osr6qg06kjks0uciln7cq.apps.googleusercontent.com",
              "client_type": 3
            }
          ]
        }
      }
    }
  ],
  "configuration_version": "1"
}